../assembled/EN/A4/p2-s1-s3-s4-s2-ja2-ma6-ja6.svg
../assembled/EN/A4/m10-m38-m17-m15-m26-m59-m18-m12.svg
../assembled/EN/A4/m68-m31-m25-m64-m67-m7-m58-m32.svg
../assembled/EN/A4/t28-t5-t3-t13-t16-t7-t8-t12.svg
../assembled/EN/A4/scg1-ma2-ja5-scg3-ja3-ha1-ra5-ma3.svg
../assembled/EN/A4/co4-co6-co7-co8-co10-co9-co1-c09.svg
../assembled/EN/A4/p1-p3-p4-mp2-p6-mp1-p5-p7.svg
../assembled/EN/A4/m23-m51-m44-m15-mod2-t61-m45-m21-m46.svg
../assembled/EN/A4/co2-co5-co3-q1-cpu1-stsct1-stsct3-stsct2.svg
../assembled/EN/A4/a12-co6.svg
../assembled/EN/A4/t26-t14-t2-t15-t25-t19-t11-t9.svg
../assembled/EN/A4/a1-a8-a14-a7-a5-a11-a18-a16.svg
../assembled/EN/A4/e3-e4-e2-e1-e5-r1-ibm1-c64.svg
../assembled/EN/A4/m42-m43-m56-m4-m27-m60-m29-m62.svg
../assembled/EN/A4/ma9-ra2-ma7-ra1-scg4-w1-ma5-g3.svg
../assembled/EN/A4/c1-env2-env1-env3-a2-a10-a4-a6.svg
../assembled/EN/A4/m5-t63-m57-m41-m15-mod-m50-m69-m19.svg
../assembled/EN/A4/m52-m40-m14-m24-m55-m2-m22-m30.svg
../assembled/EN/A4/dt1-t20-t6-t30-t22-t21-t27-t18.svg
../assembled/EN/A4/m37-m66-m61-m49-m48-m63-m54-m16.svg
../assembled/EN/A4/templateA4.svg
../assembled/EN/A4/a3-a21-a20-a9-a17-a19-a15-a13.svg
../assembled/EN/A4/ja1-scg2-ma4-g1-at1-g2-dt2-dt3.svg
../assembled/EN/A4/dp3-dp1-dp4-dp2-sk1-m8-m6-m65.svg
../assembled/EN/A4/m3-m13-bio1-b4-b3-b1-b2-eye1.svg
../assembled/EN/A4/m35-m53-m28-m47-m9-m20-m11-m1.svg
../assembled/EN/A4/t29-t24-t4-t10-t1-t23-gp1-c2.svg
../assembled/EN/A4/ja7-ja4-ra3-ma8-ra4-g4-ma1-ma11.svg
../assembled/EN/A4/endo1-mos3-mos2-mos1-mos4-bo1-smoke1-p8.svg
